^D:\UNIVER\BASE ALGORITHMITHATION AND PROGRAMMING\KURSOVAIY\KURS\KURS\STDAFX.CPP
/c /ZI /nologo /W3 /WX- /diagnostics:classic /sdl /Od /Oy- /D WIN32 /D _DEBUG /D _CONSOLE /D _UNICODE /D UNICODE /Gm /EHsc /RTC1 /MDd /GS /fp:precise /Zc:wchar_t /Zc:forScope /Zc:inline /Yc"stdafx.h" /Fp"DEBUG\KURS.PCH" /Fo"DEBUG\\" /Fd"DEBUG\VC141.PDB" /Gd /TP /analyze- D:\UNIVER\BASE ALGORITHMITHATION AND PROGRAMMING\KURSOVAIY\KURS\KURS\STDAFX.CPP
^D:\UNIVER\BASE ALGORITHMITHATION AND PROGRAMMING\KURSOVAIY\KURS\KURS\BUILDARR.CPP
/c /ZI /nologo /W3 /WX- /diagnostics:classic /sdl /Od /Oy- /D WIN32 /D _DEBUG /D _CONSOLE /D _UNICODE /D UNICODE /Gm /EHsc /RTC1 /MDd /GS /fp:precise /Zc:wchar_t /Zc:forScope /Zc:inline /Yu"stdafx.h" /Fp"DEBUG\KURS.PCH" /Fo"DEBUG\\" /Fd"DEBUG\VC141.PDB" /Gd /TP /analyze- D:\UNIVER\BASE ALGORITHMITHATION AND PROGRAMMING\KURSOVAIY\KURS\KURS\BUILDARR.CPP
^D:\UNIVER\BASE ALGORITHMITHATION AND PROGRAMMING\KURSOVAIY\KURS\KURS\DIRECTSORTING.CPP
/c /ZI /nologo /W3 /WX- /diagnostics:classic /sdl /Od /Oy- /D WIN32 /D _DEBUG /D _CONSOLE /D _UNICODE /D UNICODE /Gm /EHsc /RTC1 /MDd /GS /fp:precise /Zc:wchar_t /Zc:forScope /Zc:inline /Yu"stdafx.h" /Fp"DEBUG\KURS.PCH" /Fo"DEBUG\\" /Fd"DEBUG\VC141.PDB" /Gd /TP /analyze- D:\UNIVER\BASE ALGORITHMITHATION AND PROGRAMMING\KURSOVAIY\KURS\KURS\DIRECTSORTING.CPP
^D:\UNIVER\BASE ALGORITHMITHATION AND PROGRAMMING\KURSOVAIY\KURS\KURS\EXECUTESORT.CPP
/c /ZI /nologo /W3 /WX- /diagnostics:classic /sdl /Od /Oy- /D WIN32 /D _DEBUG /D _CONSOLE /D _UNICODE /D UNICODE /Gm /EHsc /RTC1 /MDd /GS /fp:precise /Zc:wchar_t /Zc:forScope /Zc:inline /Yu"stdafx.h" /Fp"DEBUG\KURS.PCH" /Fo"DEBUG\\" /Fd"DEBUG\VC141.PDB" /Gd /TP /analyze- D:\UNIVER\BASE ALGORITHMITHATION AND PROGRAMMING\KURSOVAIY\KURS\KURS\EXECUTESORT.CPP
^D:\UNIVER\BASE ALGORITHMITHATION AND PROGRAMMING\KURSOVAIY\KURS\KURS\KURS.CPP
/c /ZI /nologo /W3 /WX- /diagnostics:classic /sdl /Od /Oy- /D WIN32 /D _DEBUG /D _CONSOLE /D _UNICODE /D UNICODE /Gm /EHsc /RTC1 /MDd /GS /fp:precise /Zc:wchar_t /Zc:forScope /Zc:inline /Yu"stdafx.h" /Fp"DEBUG\KURS.PCH" /Fo"DEBUG\\" /Fd"DEBUG\VC141.PDB" /Gd /TP /analyze- D:\UNIVER\BASE ALGORITHMITHATION AND PROGRAMMING\KURSOVAIY\KURS\KURS\KURS.CPP
^D:\UNIVER\BASE ALGORITHMITHATION AND PROGRAMMING\KURSOVAIY\KURS\KURS\SORT.CPP
/c /ZI /nologo /W3 /WX- /diagnostics:classic /sdl /Od /Oy- /D WIN32 /D _DEBUG /D _CONSOLE /D _UNICODE /D UNICODE /Gm /EHsc /RTC1 /MDd /GS /fp:precise /Zc:wchar_t /Zc:forScope /Zc:inline /Yu"stdafx.h" /Fp"DEBUG\KURS.PCH" /Fo"DEBUG\\" /Fd"DEBUG\VC141.PDB" /Gd /TP /analyze- D:\UNIVER\BASE ALGORITHMITHATION AND PROGRAMMING\KURSOVAIY\KURS\KURS\SORT.CPP
^D:\UNIVER\BASE ALGORITHMITHATION AND PROGRAMMING\KURSOVAIY\KURSOVAIYA\KURS\KURS\STDAFX.CPP
/c /ZI /nologo /W3 /WX- /diagnostics:classic /sdl /Od /Oy- /D WIN32 /D _DEBUG /D _CONSOLE /D _UNICODE /D UNICODE /Gm /EHsc /RTC1 /MDd /GS /fp:precise /Zc:wchar_t /Zc:forScope /Zc:inline /Yc"stdafx.h" /Fp"DEBUG\KURS.PCH" /Fo"DEBUG\\" /Fd"DEBUG\VC141.PDB" /Gd /TP /analyze- D:\UNIVER\BASE ALGORITHMITHATION AND PROGRAMMING\KURSOVAIY\KURSOVAIYA\KURS\KURS\STDAFX.CPP
^D:\UNIVER\BASE ALGORITHMITHATION AND PROGRAMMING\KURSOVAIY\KURSOVAIYA\KURS\KURS\BUILDARR.CPP
/c /ZI /nologo /W3 /WX- /diagnostics:classic /sdl /Od /Oy- /D WIN32 /D _DEBUG /D _CONSOLE /D _UNICODE /D UNICODE /Gm /EHsc /RTC1 /MDd /GS /fp:precise /Zc:wchar_t /Zc:forScope /Zc:inline /Yu"stdafx.h" /Fp"DEBUG\KURS.PCH" /Fo"DEBUG\\" /Fd"DEBUG\VC141.PDB" /Gd /TP /analyze- D:\UNIVER\BASE ALGORITHMITHATION AND PROGRAMMING\KURSOVAIY\KURSOVAIYA\KURS\KURS\BUILDARR.CPP
^D:\UNIVER\BASE ALGORITHMITHATION AND PROGRAMMING\KURSOVAIY\KURSOVAIYA\KURS\KURS\DIRECTSORTING.CPP
/c /ZI /nologo /W3 /WX- /diagnostics:classic /sdl /Od /Oy- /D WIN32 /D _DEBUG /D _CONSOLE /D _UNICODE /D UNICODE /Gm /EHsc /RTC1 /MDd /GS /fp:precise /Zc:wchar_t /Zc:forScope /Zc:inline /Yu"stdafx.h" /Fp"DEBUG\KURS.PCH" /Fo"DEBUG\\" /Fd"DEBUG\VC141.PDB" /Gd /TP /analyze- D:\UNIVER\BASE ALGORITHMITHATION AND PROGRAMMING\KURSOVAIY\KURSOVAIYA\KURS\KURS\DIRECTSORTING.CPP
^D:\UNIVER\BASE ALGORITHMITHATION AND PROGRAMMING\KURSOVAIY\KURSOVAIYA\KURS\KURS\EXECUTESORT.CPP
/c /ZI /nologo /W3 /WX- /diagnostics:classic /sdl /Od /Oy- /D WIN32 /D _DEBUG /D _CONSOLE /D _UNICODE /D UNICODE /Gm /EHsc /RTC1 /MDd /GS /fp:precise /Zc:wchar_t /Zc:forScope /Zc:inline /Yu"stdafx.h" /Fp"DEBUG\KURS.PCH" /Fo"DEBUG\\" /Fd"DEBUG\VC141.PDB" /Gd /TP /analyze- D:\UNIVER\BASE ALGORITHMITHATION AND PROGRAMMING\KURSOVAIY\KURSOVAIYA\KURS\KURS\EXECUTESORT.CPP
^D:\UNIVER\BASE ALGORITHMITHATION AND PROGRAMMING\KURSOVAIY\KURSOVAIYA\KURS\KURS\KURS.CPP
/c /ZI /nologo /W3 /WX- /diagnostics:classic /sdl /Od /Oy- /D WIN32 /D _DEBUG /D _CONSOLE /D _UNICODE /D UNICODE /Gm /EHsc /RTC1 /MDd /GS /fp:precise /Zc:wchar_t /Zc:forScope /Zc:inline /Yu"stdafx.h" /Fp"DEBUG\KURS.PCH" /Fo"DEBUG\\" /Fd"DEBUG\VC141.PDB" /Gd /TP /analyze- D:\UNIVER\BASE ALGORITHMITHATION AND PROGRAMMING\KURSOVAIY\KURSOVAIYA\KURS\KURS\KURS.CPP
^D:\UNIVER\BASE ALGORITHMITHATION AND PROGRAMMING\KURSOVAIY\KURSOVAIYA\KURS\KURS\SORT.CPP
/c /ZI /nologo /W3 /WX- /diagnostics:classic /sdl /Od /Oy- /D WIN32 /D _DEBUG /D _CONSOLE /D _UNICODE /D UNICODE /Gm /EHsc /RTC1 /MDd /GS /fp:precise /Zc:wchar_t /Zc:forScope /Zc:inline /Yu"stdafx.h" /Fp"DEBUG\KURS.PCH" /Fo"DEBUG\\" /Fd"DEBUG\VC141.PDB" /Gd /TP /analyze- D:\UNIVER\BASE ALGORITHMITHATION AND PROGRAMMING\KURSOVAIY\KURSOVAIYA\KURS\KURS\SORT.CPP
